{
  "test_profiles": ["Release"],
  "test_targets": ["tests-1", "tests-2", "tests-3"],
  "submit_files": [
    "rsm/kv/client",
    "rsm/kv/node",
    "rsm/multipaxos"
  ],
  "lint_files": [
    "rsm/kv/client",
    "rsm/kv/node",
    "rsm/multipaxos"
  ],
  "lint_includes": [
    "whirl-v1-src",
    "await-src",
    "twist-src",
    "context-src",
    "wheels-src",
    "cereal-src/include",
    "fmtlib-src/include",
    "ctti-src/include"
  ]
}
