{
  "test_profiles": ["Release"],
  "test_targets": ["tests-1", "tests-2"],
  "submit_files": [
    "rsm/raft"
  ],
  "lint_files": [
    "rsm/raft"
  ],
  "lint_includes": [
    "whirl-v1-src",
    "await-src",
    "twist-src",
    "context-src",
    "wheels-src",
    "cereal-src/include",
    "fmtlib-src/include",
    "ctti-src/include"
  ]
}
